Corruption and human development • practicalgg
…
library(tidyverse)
library(cowplot)    # for theme_minimal_hgrid()
library(colorspace) # for darken()
library(ggrepel)    # for geom_text_repel()

The dataset is provided as practicalgg::corruption. Let’s look at it in table form and in basic scatterplot form.

corrupt <- practicalgg::corruption %>% 
  filter(year == 2015) %>% 
  na.omit()

corrupt

## # A tibble: 163 x 6
##    country     region                   year   cpi iso3c   hdi
##    <chr>       <chr>                   <dbl> <dbl> <chr> <dbl>
##  1 Denmark     Europe and Central Asia  2015    91 DNK   0.925
##  2 New Zealand Asia Pacific             2015    91 NZL   0.915
##  3 Finland     Europe and Central Asia  2015    90 FIN   0.895
##  4 Sweden      Europe and Central Asia  2015    89 SWE   0.913
##  5 Switzerland Europe and Central Asia  2015    86 CHE   0.939
##  6 Norway      Europe and Central Asia  2015    88 NOR   0.949
##  7 Singapore   Asia Pacific             2015    85 SGP   0.925
##  8 Netherlands Europe and Central Asia  2015    84 NLD   0.924
##  9 Canada      Americas                 2015    83 CAN   0.92 
## 10 Germany     Europe and Central Asia  2015    81 DEU   0.926
## # … with 153 more rows
…
