Health status by age • practicalgg
…
For this example, we will use the following packages.

library(tidyverse)
library(cowplot)   # for theme_minimal_hgrid()

The dataset is provided as practicalgg::happy. Let’s look at it in table form and as basic density plots.

data_health <- practicalgg::happy %>%
  select(age, health) %>%
  na.omit() %>%
  mutate(health = fct_rev(health)) # revert factor order

data_health

## # A tibble: 38,361 x 2
##      age health   
##    <dbl> <fct>    
##  1    23 good     
##  2    70 fair     
##  3    48 excellent
##  4    27 good     
##  5    61 good     
##  6    26 good     
##  7    28 excellent
##  8    27 good     
##  9    21 excellent
## 10    30 fair     
## # … with 38,351 more rows
…
